{
  "files": {
    "main.css": "/static/css/main.cf81ecbe.chunk.css",
    "main.js": "/static/js/main.19fac504.chunk.js",
    "main.js.map": "/static/js/main.19fac504.chunk.js.map",
    "runtime-main.js": "/static/js/runtime-main.81c42649.js",
    "runtime-main.js.map": "/static/js/runtime-main.81c42649.js.map",
    "static/css/2.724e2a1f.chunk.css": "/static/css/2.724e2a1f.chunk.css",
    "static/js/2.2305dd53.chunk.js": "/static/js/2.2305dd53.chunk.js",
    "static/js/2.2305dd53.chunk.js.map": "/static/js/2.2305dd53.chunk.js.map",
    "static/js/3.28d5e7f8.chunk.js": "/static/js/3.28d5e7f8.chunk.js",
    "static/js/3.28d5e7f8.chunk.js.map": "/static/js/3.28d5e7f8.chunk.js.map",
    "index.html": "/index.html",
    "static/css/2.724e2a1f.chunk.css.map": "/static/css/2.724e2a1f.chunk.css.map",
    "static/css/main.cf81ecbe.chunk.css.map": "/static/css/main.cf81ecbe.chunk.css.map",
    "static/js/2.2305dd53.chunk.js.LICENSE.txt": "/static/js/2.2305dd53.chunk.js.LICENSE.txt",
    "static/media/app.css": "/static/media/fa-solid-900.f285c40c.svg"
  },
  "entrypoints": [
    "static/js/runtime-main.81c42649.js",
    "static/css/2.724e2a1f.chunk.css",
    "static/js/2.2305dd53.chunk.js",
    "static/css/main.cf81ecbe.chunk.css",
    "static/js/main.19fac504.chunk.js"
  ]
}